<?xml version="1.0" encoding="UTF-8"?>
<svg width="34px" height="28px" viewBox="0 0 34 28" version="1.1" xmlns="http://www.w3.org/2000/svg" xmlns:xlink="http://www.w3.org/1999/xlink">
    <!-- Generator: Sketch 48.2 (47327) - http://www.bohemiancoding.com/sketch -->
    <title>DrawerIcon</title>
    <desc>Created with Sketch.</desc>
    <defs></defs>
    <g id="ヘッダ" stroke="none" stroke-width="1" fill="none" fill-rule="evenodd" transform="translate(-11.000000, -16.000000)">
        <g id="DrawerIcon" transform="translate(11.000000, 16.000000)" fill="#9B9B9B">
            <rect id="Rectangle-2" x="0" y="0" width="34" height="4"></rect>
            <rect id="Rectangle-2-Copy" x="0" y="24" width="34" height="4"></rect>
            <rect id="Rectangle-2-Copy-2" x="0" y="12" width="34" height="4"></rect>
        </g>
    </g>
</svg>
