<?xml version="1.0" encoding="UTF-8"?>
<svg width="20px" height="26px" viewBox="0 0 20 26" version="1.1" xmlns="http://www.w3.org/2000/svg" xmlns:xlink="http://www.w3.org/1999/xlink">
    <!-- Generator: Sketch 48.2 (47327) - http://www.bohemiancoding.com/sketch -->
    <title>Group</title>
    <desc>Created with Sketch.</desc>
    <defs></defs>
    <g id="ヘッダ" stroke="none" stroke-width="1" fill="none" fill-rule="evenodd" transform="translate(-302.000000, -17.000000)">
        <g id="Group" transform="translate(302.000000, 17.000000)" fill="#9B9B9B">
            <polygon id="Triangle" points="10 6 20 26 0 26"></polygon>
            <circle id="Oval" cx="10" cy="8" r="8"></circle>
        </g>
    </g>
</svg>